<svg width="658" height="777" viewBox="0 0 658 777" fill="none" xmlns="http://www.w3.org/2000/svg">
<g opacity="0.35">
<path d="M179.822 531.304C181.867 531.304 183.828 530.345 185.274 528.637C186.72 526.93 187.533 524.614 187.533 522.199V365.703C187.44 362.457 186.262 359.387 184.257 357.164C182.252 354.941 179.583 353.747 176.834 353.843H135.57C135.079 350.982 133.758 348.413 131.834 346.58C129.91 344.747 127.504 343.765 125.032 343.804H72.2322C70.1872 343.804 68.2259 344.764 66.7798 346.471C65.3337 348.179 64.5213 350.495 64.5213 352.91C64.5213 355.325 65.3337 357.641 66.7798 359.348C68.2259 361.056 70.1872 362.015 72.2322 362.015H120.32V522.229C120.32 524.644 121.133 526.96 122.579 528.668C124.025 530.375 125.986 531.334 128.031 531.334C130.076 531.334 132.038 530.375 133.484 528.668C134.93 526.96 135.742 524.644 135.742 522.229V372.054H172.112V522.199C172.112 524.613 172.924 526.929 174.37 528.637C175.816 530.344 177.777 531.304 179.822 531.304Z" fill="#3F45FC"/>
<path d="M465.711 288.501C463.666 288.501 461.705 287.542 460.258 285.834C458.812 284.126 458 281.81 458 279.396V122.9C458.093 119.654 459.27 116.584 461.276 114.361C463.281 112.138 465.95 110.944 468.699 111.04H509.963C510.453 108.179 511.775 105.609 513.699 103.776C515.623 101.944 518.029 100.962 520.501 101.001H573.3C575.345 101.001 577.307 101.96 578.753 103.668C580.199 105.376 581.011 107.692 581.011 110.107C581.011 112.522 580.199 114.838 578.753 116.545C577.307 118.253 575.345 119.212 573.3 119.212H525.212V279.426C525.212 281.841 524.4 284.157 522.954 285.864C521.508 287.572 519.547 288.531 517.501 288.531C515.456 288.531 513.495 287.572 512.049 285.864C510.603 284.157 509.791 281.841 509.791 279.426V129.251H473.421V279.396C473.421 281.81 472.608 284.126 471.163 285.833C469.717 287.541 467.756 288.501 465.711 288.501Z" fill="#3F45FC"/>
<path d="M569.73 544.993H486.581C480.092 544.993 475.014 550.456 475.014 557.437V607.649H443.32C436.614 607.649 431.753 612.413 431.753 618.975V755.069C431.753 757.484 432.566 759.8 434.012 761.508C435.458 763.216 437.419 764.175 439.464 764.175C441.509 764.175 443.471 763.216 444.917 761.508C446.363 759.8 447.175 757.484 447.175 755.069V625.866H475.021V755.076C475.021 757.49 475.833 759.806 477.279 761.514C478.725 763.222 480.687 764.181 482.732 764.181C484.777 764.181 486.738 763.222 488.184 761.514C489.63 759.806 490.443 757.49 490.443 755.076V563.204H518.346V755.076C518.346 757.49 519.158 759.806 520.604 761.514C522.051 763.222 524.012 764.181 526.057 764.181C528.102 764.181 530.063 763.222 531.509 761.514C532.955 759.806 533.768 757.49 533.768 755.076V563.204H565.88V753.532C565.88 755.947 566.692 758.263 568.139 759.971C569.585 761.678 571.546 762.638 573.591 762.638C575.636 762.638 577.597 761.678 579.043 759.971C580.49 758.263 581.302 755.947 581.302 753.532V557.558C581.302 550.632 576.111 544.993 569.73 544.993Z" fill="#3F45FC"/>
<path d="M225.947 654.638H72.0973C70.0522 654.638 68.0909 655.597 66.6448 657.305C65.1988 659.012 64.3864 661.328 64.3864 663.743C64.3864 666.158 65.1988 668.474 66.6448 670.182C68.0909 671.889 70.0522 672.849 72.0973 672.849H223.617V700.561H72.0973C70.0522 700.561 68.0909 701.52 66.6448 703.228C65.1988 704.936 64.3864 707.252 64.3864 709.667C64.3864 712.081 65.1988 714.397 66.6448 716.105C68.0909 717.813 70.0522 718.772 72.0973 718.772H179.859V755.869C179.859 758.284 180.671 760.6 182.117 762.308C183.563 764.015 185.525 764.975 187.57 764.975C189.615 764.975 191.576 764.015 193.022 762.308C194.468 760.6 195.281 758.284 195.281 755.869V718.772H205.153V747.189C203.436 747.903 201.989 749.312 201.067 751.165C200.145 753.019 199.808 755.197 200.116 757.316C200.424 759.435 201.356 761.356 202.749 762.741C204.141 764.126 205.903 764.884 207.724 764.882C214.93 764.882 220.575 757.396 220.575 747.841V718.772H225.951C229.39 718.806 232.699 717.226 235.153 714.381C237.607 711.536 239.004 707.657 239.038 703.596V669.813C239.004 665.752 237.606 661.872 235.152 659.027C232.697 656.182 229.387 654.603 225.947 654.638Z" fill="#3F45FC"/>
<path d="M601.308 18.2109H56.6921C49.7186 18.1616 43.0133 21.3805 38.0471 27.1616C33.0809 32.9426 30.2592 40.8137 30.2012 49.0481C30.2596 57.2825 33.0813 65.1533 38.0475 70.9342C43.0136 76.7152 49.7187 79.9342 56.6921 79.8853H64.3863V734.022C64.4444 742.256 67.2655 750.126 72.2309 755.907C77.1963 761.688 83.9006 764.907 90.8734 764.859H567.127C574.099 764.907 580.804 761.688 585.769 755.907C590.734 750.126 593.556 742.256 593.614 734.022V79.8853H601.304C608.278 79.9354 614.984 76.7169 619.951 70.9359C624.918 65.1548 627.74 57.2833 627.799 49.0481C627.741 40.8137 624.919 32.9426 619.953 27.1616C614.987 21.3805 608.281 18.1616 601.308 18.2109ZM578.192 513.151L79.8082 513.489V290.678L578.2 290.34L578.192 513.151ZM567.127 746.648H90.8734C87.9888 746.702 85.2038 745.404 83.1289 743.037C81.054 740.67 79.8584 737.428 79.8043 734.022V531.7L578.196 531.362V734.022C578.142 737.428 576.946 740.67 574.871 743.037C572.796 745.404 570.011 746.702 567.127 746.648ZM578.192 272.129L79.8082 272.467V79.8853H578.192V272.129ZM601.308 61.6744H56.6921C55.2567 61.7332 53.8261 61.4501 52.4853 60.842C51.1446 60.2339 49.9213 59.3133 48.8883 58.1351C47.8553 56.9568 47.0338 55.545 46.4727 53.9838C45.9116 52.4227 45.6224 50.7441 45.6224 49.0481C45.6224 47.3522 45.9116 45.6736 46.4727 44.1124C47.0338 42.5512 47.8553 41.1394 48.8883 39.9612C49.9213 38.7829 51.1446 37.8623 52.4853 37.2543C53.8261 36.6462 55.2567 36.3631 56.6921 36.4219H601.308C602.743 36.3631 604.174 36.6462 605.515 37.2543C606.855 37.8623 608.079 38.7829 609.112 39.9612C610.145 41.1394 610.966 42.5512 611.527 44.1124C612.088 45.6736 612.378 47.3522 612.378 49.0481C612.378 50.7441 612.088 52.4227 611.527 53.9838C610.966 55.545 610.145 56.9568 609.112 58.1351C608.079 59.3133 606.855 60.2339 605.515 60.842C604.174 61.4501 602.743 61.7332 601.308 61.6744Z" fill="#161DD5"/>
</g>
</svg>
